{
  "professeurs": [
    {
      "fullName": "Ndeye Guaye Hane",
      "profile": "https://firebasestorage.googleapis.com/v0/b/school-project-cb918.appspot.com/o/images%2Fimg-0.jpg?alt=media&token=6a58ebc4-9729-4d85-94f5-aedaa82d095a",
      "email": "ndeye024@gmail.com",
      "tel": "773375737",
      "status": "Prof Francais",
      "id": "DjGS7CH"
    },
    {
      "fullName": "Elhadji malick diop",
      "profile": "https://firebasestorage.googleapis.com/v0/b/school-project-cb918.appspot.com/o/images%2Fbachira.png?alt=media&token=a90b946b-54c4-4cfc-ab30-cee2857c31df",
      "email": "malickelhadji07@gmail.com",
      "tel": "771341649",
      "status": "Prof Anglais",
      "id": "65SjfTj"
    },
    {
      "fullName": "Assane Gueye",
      "profile": "https://firebasestorage.googleapis.com/v0/b/school-project-cb918.appspot.com/o/images%2Fimg-1.jpg?alt=media&token=47f03a90-f7cb-4773-ac18-650c1b8056e1",
      "email": "assanegueye@gmail.com",
      "tel": "1235678876",
      "status": "Prof Musique",
      "id": "obJHh2x"
    },
    {
      "fullName": "Aissatou Diop",
      "profile": "https://firebasestorage.googleapis.com/v0/b/school-project-cb918.appspot.com/o/images%2Fimg-0.jpg?alt=media&token=235bae25-6a00-4f76-8534-422d31e2e339",
      "email": "aissad@gmail.com",
      "tel": "779863235",
      "status": "Prof HG",
      "id": "-08pUyt"
    },
    {
      "fullName": "Khadija Ndiaye",
      "profile": "https://firebasestorage.googleapis.com/v0/b/school-project-cb918.appspot.com/o/images%2Fimg-4.jpg?alt=media&token=9a82b099-91f4-4141-9eb0-663ec83ca3bb",
      "email": "khadijand@gmail.com",
      "tel": "770324629",
      "status": "Prof d'Italien",
      "id": "sM1QjR1"
    },
    {
      "fullName": "Thierno Ba",
      "profile": "https://firebasestorage.googleapis.com/v0/b/school-project-cb918.appspot.com/o/images%2Fimg-1.jpg?alt=media&token=431587fe-6716-416d-8dd2-5a9b85da75c2",
      "email": "thierno@gmail.com",
      "tel": "7722222222",
      "status": "Prof Francais",
      "id": "oY-9et0"
    },
    {
      "fullName": "Khady Diop",
      "profile": "https://firebasestorage.googleapis.com/v0/b/school-project-cb918.appspot.com/o/images%2Fimg-0.jpg?alt=media&token=555b7e6e-3ca5-421b-87b9-83addc959ad6",
      "email": "dikhadiop@gmail.com",
      "tel": "770324629",
      "status": "Prof Anglais",
      "id": "e80r6Bm"
    },
    {
      "fullName": "Alex Mendy",
      "profile": "https://firebasestorage.googleapis.com/v0/b/school-project-cb918.appspot.com/o/images%2Fimg-1.jpg?alt=media&token=bde34ca9-a83a-40f6-ad42-08374420bd8f",
      "email": "mendy03@gmail.com",
      "tel": "7732322101",
      "status": "Prof Francais",
      "id": "IxYCH0E"
    },
    {
      "fullName": "Elhadji malick diop",
      "profile": "https://firebasestorage.googleapis.com/v0/b/school-project-cb918.appspot.com/o/images%2Fimg-2.jpg?alt=media&token=643a7658-db8c-4f55-89b3-99f07507f62c",
      "email": "malickelhadji07@gmail.com",
      "tel": "7732322101",
      "status": "Prof Musique",
      "id": "ofrektn"
    },
    {
      "fullName": "Mamy Arame",
      "profile": "https://firebasestorage.googleapis.com/v0/b/school-project-cb918.appspot.com/o/images%2Fimg-3.jpg?alt=media&token=69c94ec6-cb08-419b-b8ea-3f3dd1549396",
      "email": "maremebop216@gmail.com",
      "tel": "7732322101",
      "status": "Prof Anglais",
      "id": "YQRfmd0"
    }
  ],
  "eleves": [
    {
      "fullName": "Baye Hane",
      "tel": "773375908",
      "sexe": "Masculin",
      "age": "20",
      "id": 1
    },
    {
      "fullName": "Aissatou Diop",
      "age": "16",
      "tel": "771341649",
      "sexe": "Feminin",
      "id": 2
    }
  ]
}